…
listProducts
------------

``` r
laads_products()
```

    ## # A tibble: 190 x 3
    ##       Name
    ##      <chr>
    ## 1  MCD15A2
    ## 2  MCD43A1
    ## 3  MCD43A2
    ## 4  MCD43A3
    ## 5  MCD43A4
    ## 6  MCD43B1
    ## 7  MCD43B2
    ## 8  MCD43B3
    ## 9  MCD43B4
    ## 10 MCD43C1
    ## # ... with 180 more rows, and 2 more variables: Description <chr>,
    ## #   DefaultCollection <chr>
…
